﻿{
  "students":  [
    {
      "id": 1,
      "name": "Kim Dominggo",
      "age":  18
    },
    {
      "id": 2,
      "name": "Nancy Momoland",
      "age": 18
    },
    {
      "id":  3,
      "name":  "Nadine Lustre",
      "age": 19
    }
  ]
}
